<svg xmlns="http://www.w3.org/2000/svg" width="57.91" height="37.32" viewBox="0 0 57.91 37.32">
  <metadata><?xpacket begin="﻿" id="W5M0MpCehiHzreSzNTczkc9d"?>
<x:xmpmeta xmlns:x="adobe:ns:meta/" x:xmptk="Adobe XMP Core 5.6-c138 79.159824, 2016/09/14-01:09:01        ">
   <rdf:RDF xmlns:rdf="http://www.w3.org/1999/02/22-rdf-syntax-ns#">
      <rdf:Description rdf:about=""/>
   </rdf:RDF>
</x:xmpmeta>
                                                                                                    
                                                                                                    
                                                                                                    
                                                                                                    
                                                                                                    
                                                                                                    
                                                                                                    
                                                                                                    
                                                                                                    
                                                                                                    
                                                                                                    
                                                                                                    
                                                                                                    
                                                                                                    
                                                                                                    
                                                                                                    
                                                                                                    
                                                                                                    
                                                                                                    
                                                                                                    
                           
<?xpacket end="w"?></metadata>
<defs>
    <style>
      .cls-1 {
        fill: #a0a8ac;
        fill-rule: evenodd;
      }
    </style>
  </defs>
  <path id="Forma_1" data-name="Forma 1" class="cls-1" d="M1311.88,1337.5a3.008,3.008,0,0,0-1.72-2.71l-9.61-4.46,9.61-4.46a3.008,3.008,0,0,0,1.72-2.71v-0.08a2.951,2.951,0,0,0-1.38-2.51,2.908,2.908,0,0,0-1.6-.47,3.012,3.012,0,0,0-1.26.28l-15.35,7.14a2.985,2.985,0,0,0-1.73,2.7v0.22a3,3,0,0,0,1.73,2.7l15.35,7.14a2.9,2.9,0,0,0,1.26.28,2.989,2.989,0,0,0,2.98-2.98v-0.08h0Zm15.15-24.67a2.989,2.989,0,0,0-2.41-1.23h-0.08a2.974,2.974,0,0,0-2.84,2.07l-10.11,31.35a2.977,2.977,0,0,0,2.84,3.89h0.08a2.974,2.974,0,0,0,2.84-2.07l10.11-31.34A2.987,2.987,0,0,0,1327.03,1312.83Zm19.73,14.69-15.35-7.14a3.012,3.012,0,0,0-1.26-.28,2.975,2.975,0,0,0-2.98,2.98v0.08a3,3,0,0,0,1.72,2.71l9.6,4.46-9.6,4.46a2.991,2.991,0,0,0-1.72,2.71v0.08a2.975,2.975,0,0,0,2.98,2.98,2.9,2.9,0,0,0,1.26-.28l15.35-7.14a2.987,2.987,0,0,0,1.72-2.7v-0.22A2.976,2.976,0,0,0,1346.76,1327.52Z" transform="translate(-1290.56 -1311.59)"/>
</svg>
