<svg xmlns="http://www.w3.org/2000/svg" width="42" height="38.75" viewBox="0 0 42 38.75">
  <metadata><?xpacket begin="﻿" id="W5M0MpCehiHzreSzNTczkc9d"?>
<x:xmpmeta xmlns:x="adobe:ns:meta/" x:xmptk="Adobe XMP Core 5.6-c138 79.159824, 2016/09/14-01:09:01        ">
   <rdf:RDF xmlns:rdf="http://www.w3.org/1999/02/22-rdf-syntax-ns#">
      <rdf:Description rdf:about=""/>
   </rdf:RDF>
</x:xmpmeta>
                                                                                                    
                                                                                                    
                                                                                                    
                                                                                                    
                                                                                                    
                                                                                                    
                                                                                                    
                                                                                                    
                                                                                                    
                                                                                                    
                                                                                                    
                                                                                                    
                                                                                                    
                                                                                                    
                                                                                                    
                                                                                                    
                                                                                                    
                                                                                                    
                                                                                                    
                                                                                                    
                           
<?xpacket end="w"?></metadata>
<defs>
    <style>
      .cls-1 {
        fill: #fff;
        fill-rule: evenodd;
      }
    </style>
  </defs>
  <path id="Forma_1" data-name="Forma 1" class="cls-1" d="M760.968,1188.34v12.84h8.18v-2.26h-5.923v-10.58h-2.257ZM783,1198.63a19.507,19.507,0,0,0-38.742-3.23h-3.132l5.4,9.3,5.56-9.3H748.85a14.994,14.994,0,1,1,17.9,17.86v4.6A19.567,19.567,0,0,0,783,1198.63Zm-38.561,17.19,1.435-1.52a23.742,23.742,0,0,0,1.919-2.29,3.126,3.126,0,0,0,.521-1.78,2.981,2.981,0,0,0-.98-2.35,4.013,4.013,0,0,0-2.728-.86,3.538,3.538,0,0,0-2.644,1.03,3.344,3.344,0,0,0-.961,2.51l0.014,0.07h2.4a1.989,1.989,0,0,1,.317-1.22,1.012,1.012,0,0,1,.871-0.48,1.157,1.157,0,0,1,.928.36,1.428,1.428,0,0,1,.31.97,2.238,2.238,0,0,1-.306,1.01,7.041,7.041,0,0,1-.93,1.33l-3.385,3.58v1.64h7.334v-1.98h-4.1Zm10.888-8.58h-2.4v-0.04l-4.281,6.85,0.119,1.51h4.162v2.26h2.4v-2.26h1.128v-1.83h-1.128v-6.49Zm-2.4,6.49h-2.108l1.821-3.03,0.216-.32h0.071v3.35Zm11.564,4.09v-4.57a7.455,7.455,0,0,0-.029-0.94,3.34,3.34,0,0,0-.626-1.7,2.331,2.331,0,0,0-1.916-.85,2.185,2.185,0,0,0-1.1.29,1.869,1.869,0,0,0-.84.83v-3.78h-2.538v10.72h2.538v-5.77a0.6,0.6,0,0,1,.41-0.29,1.587,1.587,0,0,1,.606-0.11,0.988,0.988,0,0,1,.83.34,2.1,2.1,0,0,1,.27,1.25v4.58h2.4Z" transform="translate(-741 -1179.13)"/>
</svg>
